…
# This removes repeated row labels, to replicate how this data might be displayed in Excel
time_series$Offence.Type[duplicated(time_series$Offence.Type)] <- NA

time_series
```

    ## # A tibble: 22 x 7
    ##    Offence.Type    Offence.Group         `2014` `2015` `2016` `2017` `2018`
    ##    <chr>           <chr>                  <int>  <int>  <int>  <int>  <int>
    ##  1 01 Indictable … 01 Violence against …   7447   6930   6724   7233   6602
    ##  2 <NA>            02 Sexual offences      5289   5743   5610   4941   2930
    ##  3 <NA>            03 Robbery              9049   7236   6024   5953   5713
    ##  4 <NA>            04 Theft Offences       1726   1465   1265   1345   1097
    ##  5 <NA>            05 Criminal damage a…    711    738    647    648    563
    ##  6 <NA>            06 Drug offences           0      0     42    211     75
    ##  7 <NA>            07 Possession of wea…    729    776    860    776    912
    ##  8 <NA>            08 Public order offe…     27     68    665    773    842
    ##  9 <NA>            09 Miscellaneous cri…   3648   3054   2930   2763   2277
    ## 10 <NA>            10 Fraud Offences        421    460    408    379    173
    ## # … with 12 more rows
…
``` r
total <- (time_series$`2014` + time_series$`2015` + time_series$`2016` +
          time_series$`2017` + time_series$`2018`)

time_series_with_total <- time_series
time_series_with_total$Total <- total

time_series_with_total
```

    ## # A tibble: 22 x 8
    ##    Offence.Type  Offence.Group     `2014` `2015` `2016` `2017` `2018` Total
    ##    <chr>         <chr>              <int>  <int>  <int>  <int>  <int> <int>
    ##  1 01 Indictabl… 01 Violence agai…   7447   6930   6724   7233   6602 34936
    ##  2 <NA>          02 Sexual offenc…   5289   5743   5610   4941   2930 24513
    ##  3 <NA>          03 Robbery          9049   7236   6024   5953   5713 33975
    ##  4 <NA>          04 Theft Offences   1726   1465   1265   1345   1097  6898
    ##  5 <NA>          05 Criminal dama…    711    738    647    648    563  3307
    ##  6 <NA>          06 Drug offences       0      0     42    211     75   328
    ##  7 <NA>          07 Possession of…    729    776    860    776    912  4053
    ##  8 <NA>          08 Public order …     27     68    665    773    842  2375
    ##  9 <NA>          09 Miscellaneous…   3648   3054   2930   2763   2277 14672
    ## 10 <NA>          10 Fraud Offences    421    460    408    379    173  1841
    ## # … with 12 more rows
But what if we want to re-use the code in the future? We’d need to
generalise it for different years or a different number of years.
Fortunately we can restructure the data to help with this problem.

First let’s deal with the empty row labels in the `Offence.Type` column.
Although avoiding repeated row labels looks neater in an Excel table, it
can be problematic for analysis. Fortunately we can easily fill the row
labels in using the `fill()` function from tidyr:

``` r
time_series <- time_series %>% tidyr::fill(Offence.Type)
time_series
```

    ## # A tibble: 22 x 7
    ##    Offence.Type    Offence.Group         `2014` `2015` `2016` `2017` `2018`
    ##    <chr>           <chr>                  <int>  <int>  <int>  <int>  <int>
    ##  1 01 Indictable … 01 Violence against …   7447   6930   6724   7233   6602
    ##  2 01 Indictable … 02 Sexual offences      5289   5743   5610   4941   2930
    ##  3 01 Indictable … 03 Robbery              9049   7236   6024   5953   5713
    ##  4 01 Indictable … 04 Theft Offences       1726   1465   1265   1345   1097
    ##  5 01 Indictable … 05 Criminal damage a…    711    738    647    648    563
    ##  6 01 Indictable … 06 Drug offences           0      0     42    211     75
    ##  7 01 Indictable … 07 Possession of wea…    729    776    860    776    912
    ##  8 01 Indictable … 08 Public order offe…     27     68    665    773    842
    ##  9 01 Indictable … 09 Miscellaneous cri…   3648   3054   2930   2763   2277
    ## 10 01 Indictable … 10 Fraud Offences        421    460    408    379    173
    ## # … with 12 more rows

Now we need to transform this dataframe into a long format, using
`pivot_longer()`:

``` r
time_series_long <- time_series %>%
  tidyr::pivot_longer(cols = -c("Offence.Type", "Offence.Group"), names_to = "year", values_to = "count")

time_series_long
```

    ## # A tibble: 110 x 4
    ##    Offence.Type       Offence.Group                  year  count
    ##    <chr>              <chr>                          <chr> <int>
    ##  1 01 Indictable only 01 Violence against the person 2014   7447
    ##  2 01 Indictable only 01 Violence against the person 2015   6930
    ##  3 01 Indictable only 01 Violence against the person 2016   6724
    ##  4 01 Indictable only 01 Violence against the person 2017   7233
    ##  5 01 Indictable only 01 Violence against the person 2018   6602
    ##  6 01 Indictable only 02 Sexual offences             2014   5289
    ##  7 01 Indictable only 02 Sexual offences             2015   5743
    ##  8 01 Indictable only 02 Sexual offences             2016   5610
    ##  9 01 Indictable only 02 Sexual offences             2017   4941
    ## 10 01 Indictable only 02 Sexual offences             2018   2930
    ## # … with 100 more rows

Now we’re ready to find the total for each offence group using
`group_by()` and `summarise()` from dplyr:

``` r
totals <- time_series_long %>%
  group_by(Offence.Type, Offence.Group) %>%
  summarise(Total = sum(count))

totals
```

    ## # A tibble: 22 x 3
    ## # Groups:   Offence.Type [5]
    ##    Offence.Type       Offence.Group                           Total
    ##    <chr>              <chr>                                   <int>
    ##  1 01 Indictable only 01 Violence against the person          34936
    ##  2 01 Indictable only 02 Sexual offences                      24513
    ##  3 01 Indictable only 03 Robbery                              33975
    ##  4 01 Indictable only 04 Theft Offences                        6898
    ##  5 01 Indictable only 05 Criminal damage and arson             3307
    ##  6 01 Indictable only 06 Drug offences                          328
    ##  7 01 Indictable only 07 Possession of weapons                 4053
    ##  8 01 Indictable only 08 Public order offences                 2375
    ##  9 01 Indictable only 09 Miscellaneous crimes against society 14672
    ## 10 01 Indictable only 10 Fraud Offences                        1841
    ## # … with 12 more rows

If we wanted to add these totals to our original dataframe, we can use
`left_join()` from dplyr:

``` r
time_series <- dplyr::left_join(time_series, totals, by=c("Offence.Type", "Offence.Group"))

time_series
```

    ## # A tibble: 22 x 8
    ##    Offence.Type  Offence.Group     `2014` `2015` `2016` `2017` `2018` Total
    ##    <chr>         <chr>              <int>  <int>  <int>  <int>  <int> <int>
    ##  1 01 Indictabl… 01 Violence agai…   7447   6930   6724   7233   6602 34936
    ##  2 01 Indictabl… 02 Sexual offenc…   5289   5743   5610   4941   2930 24513
    ##  3 01 Indictabl… 03 Robbery          9049   7236   6024   5953   5713 33975
    ##  4 01 Indictabl… 04 Theft Offences   1726   1465   1265   1345   1097  6898
    ##  5 01 Indictabl… 05 Criminal dama…    711    738    647    648    563  3307
    ##  6 01 Indictabl… 06 Drug offences       0      0     42    211     75   328
    ##  7 01 Indictabl… 07 Possession of…    729    776    860    776    912  4053
    ##  8 01 Indictabl… 08 Public order …     27     68    665    773    842  2375
    ##  9 01 Indictabl… 09 Miscellaneous…   3648   3054   2930   2763   2277 14672
    ## 10 01 Indictabl… 10 Fraud Offences    421    460    408    379    173  1841
    ## # … with 12 more rows
…
