…
Notice also the use of the `names_pattern = "(.)(.)"` option. This is a special kind of regex use where the values within the brackets are used to detect the kind of pattern to be used. 

The `names_pattern` or `name_sep()` options make explicit use of the `extract()` and  `separete()` tools respectively (discussed in more detail in the  next sections) utilising regular expressions to detect the varaible to pivot. In the former expression, the regex contained in the matching groups depicted within the brackets in the above expression, is what distinguishes one part of the variable from the other.  


## Widening the dataset

`pivot_wider()` is the opposite `pivot_longer()` tranforming a dataset to a **wider** format. It is not used as often but  has still some value in presenting a dataset in a different light should the situation calls for it.

Consider the `fish_encounters` dataset, contributed by Myfanwy Johnston depicted below. It describes whether fish swimming down a river are detected or not by automatic monitoring stations.

```{r}

fish_encounters
#> # A tibble: 114 x 3
#>    fish  station  seen
#>    <fct> <fct>   <int>
#>  1 4842  Release     1
#>  2 4842  I80_1       1
#>  3 4842  Lisbon      1
#>  4 4842  Rstr        1
#>  5 4842  Base_TD     1
#>  6 4842  BCE         1
#>  7 4842  BCW         1
#>  8 4842  BCE2        1
#>  9 4842  BCW2        1
#> 10 4842  MAE         1
#> # … with 104 more rows
```

A simple use of the function can provide a better understanding of what the data contains and also make it more useful for potential use in later stages of a processing system where specific input from each station can be utilised. 


```{r}
fish_encounters %>% pivot_wider(names_from = station, values_from = seen)
#> # A tibble: 19 x 12
#>    fish  Release I80_1 Lisbon  Rstr Base_TD   BCE   BCW  BCE2  BCW2   MAE   MAW
#>    <fct>   <int> <int>  <int> <int>   <int> <int> <int> <int> <int> <int> <int>
#>  1 4842        1     1      1     1       1     1     1     1     1     1     1
#>  2 4843        1     1      1     1       1     1     1     1     1     1     1
#>  3 4844        1     1      1     1       1     1     1     1     1     1     1
#>  4 4845        1     1      1     1       1    NA    NA    NA    NA    NA    NA
#>  5 4847        1     1      1    NA      NA    NA    NA    NA    NA    NA    NA
#>  6 4848        1     1      1     1      NA    NA    NA    NA    NA    NA    NA
#>  7 4849        1     1     NA    NA      NA    NA    NA    NA    NA    NA    NA
#>  8 4850        1     1     NA     1       1     1     1    NA    NA    NA    NA
#>  9 4851        1     1     NA    NA      NA    NA    NA    NA    NA    NA    NA
#> 10 4854        1     1     NA    NA      NA    NA    NA    NA    NA    NA    NA
#> # … with 9 more rows

```

The general use is very similar to that presented in ``pivot_longer()` with `names_from` targeting the column containing the subcategories to plit from and `values_from` the correposning values associated with each category. 

Notice that there will be cases where there is no match and these will initially be filled with `NA`. Simply setting the option `values_fill` to a value of your choise will replaced teh `NA` values to something more meaningful.   


```{r}
fish_encounters %>% pivot_wider(
  names_from = station,
  values_from = seen,
  values_fill = 0
)
#> # A tibble: 19 x 12
#>    fish  Release I80_1 Lisbon  Rstr Base_TD   BCE   BCW  BCE2  BCW2   MAE   MAW
#>    <fct>   <int> <int>  <int> <int>   <int> <int> <int> <int> <int> <int> <int>
#>  1 4842        1     1      1     1       1     1     1     1     1     1     1
#>  2 4843        1     1      1     1       1     1     1     1     1     1     1
#>  3 4844        1     1      1     1       1     1     1     1     1     1     1
#>  4 4845        1     1      1     1       1     0     0     0     0     0     0
#>  5 4847        1     1      1     0       0     0     0     0     0     0     0
#>  6 4848        1     1      1     1       0     0     0     0     0     0     0
#>  7 4849        1     1      0     0       0     0     0     0     0     0     0
#>  8 4850        1     1      0     1       1     1     1     0     0     0     0
#>  9 4851        1     1      0     0       0     0     0     0     0     0     0
#> 10 4854        1     1      0     0       0     0     0     0     0     0     0
#> # … with 9 more rows
```
…
